analog.c:99:12:ad_init	8	static
analog.c:108:12:de_init	4	static
analog.c:112:6:HAL_ADC_ConvCpltCallback	32	static,ignoring_inline_asm
analog.c:121:6:HAL_ADC_ErrorCallback	16	static
analog.c:127:13:start_ad_conversion	16	static
analog.c:139:17:add_moving_hysteresis	16	static
analog.c:154:13:add_moving_average_value	24	static
analog.c:165:6:ad_task_fn	24	static
analog.c:208:13:cmd_usage	8	static
analog.c:212:6:cmd_ad	24	static
analog.c:272:9:ad_get	16	static
analog.c:283:24:min	16	static
analog.c:288:20:vis_value	16	static
analog.c:295:6:ad_vis_fn	72	static
